{
  "list": [
    {
      "id": 1,
      "name": "74 колеса",
      "address": "Челябинск, Рылеева, 16",
      "date": "16.10.2023",
      "workersTotal": 6,
      "workersActive": 3,
      "payoutStatus": null
    },
    {
      "id": 2,
      "name": "74 колеса",
      "address": "Екатеринбург, Шефская, 3м",
      "date": "16.10.2023",
      "workersTotal": 4,
      "workersActive": 1,
      "payoutStatus": null
    },
    {
      "id": 3,
      "name": "74 колеса",
      "address": "Уфа, Новоженова, 90/4",
      "date": "16.10.2023",
      "workersTotal": 1,
      "workersActive": 0,
      "payoutStatus": null
    },
    {
      "id": 4,
      "name": "74 колеса",
      "address": "Уфа, Новоженова, 90/4",
      "date": "16.10.2023",
      "workersTotal": 1,
      "workersActive": 0,
      "payoutStatus": null
    },
    {
      "id": 5,
      "name": "СОМ",
      "address": "Нижний Тагил, Свердловское шоссе, 31",
      "date": "16.10.2023",
      "workersTotal": 1,
      "workersActive": 0,
      "payoutStatus": null
    },
    {
      "id": 6,
      "name": "74 колеса",
      "address": "Челябинск, Рылеева, 16",
      "date": "16.10.2023",
      "workersTotal": 6,
      "workersActive": 3,
      "payoutStatus": null
    },
    {
      "id": 7,
      "name": "74 колеса",
      "address": "Екатеринбург, Шефская, 3м",
      "date": "16.10.2023",
      "workersTotal": 4,
      "workersActive": 1,
      "payoutStatus": null
    },
    {
      "id": 8,
      "name": "74 колеса",
      "address": "Уфа, Новоженова, 90/4",
      "date": "16.10.2023",
      "workersTotal": 1,
      "workersActive": 0,
      "payoutStatus": null
    },
    {
      "id": 9,
      "name": "Эксперт Фиш",
      "address": "Уфа, Новоженова, 90/4",
      "date": "16.10.2023",
      "workersTotal": 1,
      "workersActive": 0,
      "payoutStatus": null
    },
    {
      "id": 10,
      "name": "74 колеса",
      "address": "Уфа, Новоженова, 90/4",
      "date": "16.10.2023",
      "workersTotal": 1,
      "workersActive": 0,
      "payoutStatus": null
    },
    {
      "id": 11,
      "name": "СОМ",
      "address": "Нижний Тагил, Свердловское шоссе, 31",
      "date": "16.10.2023",
      "workersTotal": 1,
      "workersActive": 0,
      "payoutStatus": null
    },
    {
      "id": 12,
      "name": "74 колеса",
      "address": "Екатеринбург, Шефская, 3м",
      "date": "16.10.2023",
      "workersTotal": 4,
      "workersActive": 1,
      "payoutStatus": null
    },
    {
      "id": 13,
      "name": "74 колеса",
      "address": "Уфа, Новоженова, 90/4",
      "date": "16.10.2023",
      "workersTotal": 1,
      "workersActive": 0,
      "payoutStatus": null
    },
    {
      "id": 14,
      "name": "74 колеса",
      "address": "Уфа, Новоженова, 90/4",
      "date": "16.10.2023",
      "workersTotal": 1,
      "workersActive": 0,
      "payoutStatus": null
    },
    {
      "id": 15,
      "name": "СОМ",
      "address": "Нижний Тагил, Свердловское шоссе, 31",
      "date": "16.10.2023",
      "workersTotal": 1,
      "workersActive": 1,
      "payoutStatus": null
    }
  ],
  "currentPage": 1,
  "totalPages": 15
}
